{ "npmClient": "yarn",
  "private": true,
  "useWorkspaces": true,
  "packages": [
    "packages/*"
  ],
  "version": "independent",
  "command": {
    "publish": {
      "allowBranch": "master",
      "registry": "http://localhost:8081/repository/fdn-group/"
    }
  }
}
